…
Total de sectores específicos:

``` r
tablaGeneral %>% group_by(`Específico`) %>% summarise()
```

    ## # A tibble: 22 x 1
    ##    Específico                                                              
    ##    <chr>                                                                   
    ##  1 Actividades agrícolas, de silvicultura y de pesca                       
    ##  2 Aguas residuales generadas en la ciudad                                 
    ##  3 Aviación                                                                
    ##  4 Construcción e industrias manufactureras                                
    ##  5 Disposición de residuos sólidos generados en la ciudad                  
    ##  6 Edificios e instalaciones comerciales e institucionales                 
    ##  7 Edificios residenciales                                                 
    ##  8 "Emisiones fugitivas provenientes de la minería, el procesamiento, el a…
    ##  9 Emisiones fugitivas provenientes de los sistemas de petróleo y gas natu…
    ## 10 Ferroviario                                                             
    ## # ... with 12 more rows
…
